ASSIGNMENT -11 TimeSeries Analysis
…
2. Compute and plot the 1, 3, and 5 year moving average for the personal consumption expenditures and To compute moving averages on our data we can leverage the rollmean function from the zoo package

savings <- economics %>%
  select(date, srate = pce) %>%
  mutate(srate_ma01 = rollmean(srate, k = 13, fill = NA),
         srate_ma03 = rollmean(srate, k = 37, fill = NA),
         srate_ma05 = rollmean(srate, k = 61, fill = NA))

savings

## # A tibble: 574 x 5
##    date       srate srate_ma01 srate_ma03 srate_ma05
##    <date>     <dbl>      <dbl>      <dbl>      <dbl>
##  1 1967-07-01  507.        NA          NA         NA
##  2 1967-08-01  510.        NA          NA         NA
##  3 1967-09-01  516.        NA          NA         NA
##  4 1967-10-01  513.        NA          NA         NA
##  5 1967-11-01  518.        NA          NA         NA
##  6 1967-12-01  526.        NA          NA         NA
##  7 1968-01-01  532.       532.         NA         NA
##  8 1968-02-01  534.       537.         NA         NA
##  9 1968-03-01  545.       541.         NA         NA
## 10 1968-04-01  545.       546.         NA         NA
## # ... with 564 more rows
…
